<svg width="24" height="16" viewBox="0 0 24 16" fill="none" xmlns="http://www.w3.org/2000/svg">
<rect width="24" height="2" fill="black"/>
<rect x="13" y="7" width="11" height="2" fill="black"/>
<rect y="14" width="24" height="2" fill="black"/>
</svg>
