<svg width="40" height="40" viewBox="0 0 40 40" fill="none" xmlns="http://www.w3.org/2000/svg">
<path d="M33.333 20L30.983 17.65L21.6663 26.95L21.6663 6.66663L18.333 6.66663L18.333 26.95L9.01634 17.65L6.66634 20L19.9997 33.3333L33.333 20Z" fill="black"/>
</svg>
