<svg width="50" height="50" viewBox="0 0 50 50" fill="none" xmlns="http://www.w3.org/2000/svg">
<rect x="1" y="1" width="48" height="48" stroke="white" stroke-width="2"/>
<path d="M25 17L23.59 18.41L29.17 24H17V26H29.17L23.59 31.59L25 33L33 25L25 17Z" fill="white"/>
</svg>
