<svg width="940" height="260" viewBox="0 0 940 260" fill="none" xmlns="http://www.w3.org/2000/svg">
<circle cx="10" cy="10" r="10" fill="black"/>
<circle cx="10" cy="50" r="10" fill="black"/>
<circle cx="10" cy="90" r="10" fill="black"/>
<circle cx="10" cy="130" r="10" fill="black"/>
<circle cx="10" cy="170" r="10" fill="black"/>
<circle cx="10" cy="210" r="10" fill="black"/>
<circle cx="10" cy="250" r="10" fill="black"/>
<circle cx="50" cy="10" r="10" fill="black"/>
<circle cx="50" cy="50" r="10" fill="black"/>
<circle cx="50" cy="90" r="10" fill="black"/>
<circle cx="50" cy="130" r="10" fill="black"/>
<circle cx="50" cy="170" r="10" fill="black"/>
<circle cx="50" cy="210" r="10" fill="black"/>
<circle cx="50" cy="250" r="10" fill="black"/>
<circle cx="90" cy="10" r="10" fill="black"/>
<circle cx="90" cy="50" r="10" fill="black"/>
<circle cx="90" cy="90" r="10" fill="black"/>
<circle cx="90" cy="130" r="10" fill="black"/>
<circle cx="90" cy="170" r="10" fill="black"/>
<circle cx="90" cy="210" r="10" fill="black"/>
<circle cx="90" cy="250" r="10" fill="black"/>
<circle cx="130" cy="10" r="10" fill="black"/>
<circle cx="130" cy="50" r="10" fill="black"/>
<circle cx="130" cy="90" r="10" fill="black"/>
<circle cx="130" cy="130" r="10" fill="black"/>
<circle cx="130" cy="170" r="10" fill="black"/>
<circle cx="130" cy="210" r="10" fill="black"/>
<circle cx="130" cy="250" r="10" fill="black"/>
<circle cx="170" cy="10" r="10" fill="black"/>
<circle cx="170" cy="50" r="10" fill="black"/>
<circle cx="170" cy="90" r="10" fill="black"/>
<circle cx="170" cy="130" r="10" fill="black"/>
<circle cx="170" cy="170" r="10" fill="black"/>
<circle cx="170" cy="210" r="10" fill="black"/>
<circle cx="170" cy="250" r="10" fill="black"/>
<circle cx="210" cy="10" r="10" fill="black"/>
<circle cx="210" cy="50" r="10" fill="black"/>
<circle cx="210" cy="90" r="10" fill="black"/>
<circle cx="210" cy="130" r="10" fill="black"/>
<circle cx="210" cy="170" r="10" fill="black"/>
<circle cx="210" cy="210" r="10" fill="black"/>
<circle cx="210" cy="250" r="10" fill="black"/>
<circle cx="250" cy="10" r="10" fill="black"/>
<circle cx="250" cy="50" r="10" fill="black"/>
<circle cx="250" cy="90" r="10" fill="black"/>
<circle cx="250" cy="130" r="10" fill="black"/>
<circle cx="250" cy="170" r="10" fill="black"/>
<circle cx="250" cy="210" r="10" fill="black"/>
<circle cx="250" cy="250" r="10" fill="black"/>
<circle cx="290" cy="10" r="10" fill="black"/>
<circle cx="290" cy="50" r="10" fill="black"/>
<circle cx="290" cy="90" r="10" fill="black"/>
<circle cx="290" cy="130" r="10" fill="black"/>
<circle cx="290" cy="170" r="10" fill="black"/>
<circle cx="290" cy="210" r="10" fill="black"/>
<circle cx="290" cy="250" r="10" fill="black"/>
<circle cx="330" cy="10" r="10" fill="black"/>
<circle cx="330" cy="50" r="10" fill="black"/>
<circle cx="330" cy="90" r="10" fill="black"/>
<circle cx="330" cy="130" r="10" fill="black"/>
<circle cx="330" cy="170" r="10" fill="black"/>
<circle cx="330" cy="210" r="10" fill="black"/>
<circle cx="330" cy="250" r="10" fill="black"/>
<circle cx="370" cy="10" r="10" fill="black"/>
<circle cx="370" cy="50" r="10" fill="black"/>
<circle cx="370" cy="90" r="10" fill="black"/>
<circle cx="370" cy="130" r="10" fill="black"/>
<circle cx="370" cy="170" r="10" fill="black"/>
<circle cx="370" cy="210" r="10" fill="black"/>
<circle cx="370" cy="250" r="10" fill="black"/>
<circle cx="410" cy="10" r="10" fill="black"/>
<circle cx="410" cy="50" r="10" fill="black"/>
<circle cx="410" cy="90" r="10" fill="black"/>
<circle cx="410" cy="130" r="10" fill="black"/>
<circle cx="410" cy="170" r="10" fill="black"/>
<circle cx="410" cy="210" r="10" fill="black"/>
<circle cx="410" cy="250" r="10" fill="black"/>
<circle cx="450" cy="10" r="10" fill="black"/>
<circle cx="450" cy="50" r="10" fill="black"/>
<circle cx="450" cy="90" r="10" fill="black"/>
<circle cx="450" cy="130" r="10" fill="black"/>
<circle cx="450" cy="170" r="10" fill="black"/>
<circle cx="450" cy="210" r="10" fill="black"/>
<circle cx="450" cy="250" r="10" fill="black"/>
<circle cx="490" cy="10" r="10" fill="black"/>
<circle cx="490" cy="50" r="10" fill="black"/>
<circle cx="490" cy="90" r="10" fill="black"/>
<circle cx="490" cy="130" r="10" fill="black"/>
<circle cx="490" cy="170" r="10" fill="black"/>
<circle cx="490" cy="210" r="10" fill="black"/>
<circle cx="490" cy="250" r="10" fill="black"/>
<circle cx="530" cy="10" r="10" fill="black"/>
<circle cx="530" cy="50" r="10" fill="black"/>
<circle cx="530" cy="90" r="10" fill="black"/>
<circle cx="530" cy="130" r="10" fill="black"/>
<circle cx="530" cy="170" r="10" fill="black"/>
<circle cx="530" cy="210" r="10" fill="black"/>
<circle cx="530" cy="250" r="10" fill="black"/>
<circle cx="570" cy="10" r="10" fill="black"/>
<circle cx="570" cy="50" r="10" fill="black"/>
<circle cx="570" cy="90" r="10" fill="black"/>
<circle cx="570" cy="130" r="10" fill="black"/>
<circle cx="570" cy="170" r="10" fill="black"/>
<circle cx="570" cy="210" r="10" fill="black"/>
<circle cx="570" cy="250" r="10" fill="black"/>
<circle cx="610" cy="10" r="10" fill="black"/>
<circle cx="610" cy="50" r="10" fill="black"/>
<circle cx="610" cy="90" r="10" fill="black"/>
<circle cx="610" cy="130" r="10" fill="black"/>
<circle cx="610" cy="170" r="10" fill="black"/>
<circle cx="610" cy="210" r="10" fill="black"/>
<circle cx="610" cy="250" r="10" fill="black"/>
<circle cx="650" cy="10" r="10" fill="black"/>
<circle cx="650" cy="50" r="10" fill="black"/>
<circle cx="650" cy="90" r="10" fill="black"/>
<circle cx="650" cy="130" r="10" fill="black"/>
<circle cx="650" cy="170" r="10" fill="black"/>
<circle cx="650" cy="210" r="10" fill="black"/>
<circle cx="650" cy="250" r="10" fill="black"/>
<circle cx="690" cy="10" r="10" fill="black"/>
<circle cx="690" cy="50" r="10" fill="black"/>
<circle cx="690" cy="90" r="10" fill="black"/>
<circle cx="690" cy="130" r="10" fill="black"/>
<circle cx="690" cy="170" r="10" fill="black"/>
<circle cx="690" cy="210" r="10" fill="black"/>
<circle cx="690" cy="250" r="10" fill="black"/>
<circle cx="730" cy="10" r="10" fill="black"/>
<circle cx="730" cy="50" r="10" fill="black"/>
<circle cx="730" cy="90" r="10" fill="black"/>
<circle cx="730" cy="130" r="10" fill="black"/>
<circle cx="730" cy="170" r="10" fill="black"/>
<circle cx="730" cy="210" r="10" fill="black"/>
<circle cx="730" cy="250" r="10" fill="black"/>
<circle cx="770" cy="10" r="10" fill="black"/>
<circle cx="770" cy="50" r="10" fill="black"/>
<circle cx="770" cy="90" r="10" fill="black"/>
<circle cx="770" cy="130" r="10" fill="black"/>
<circle cx="770" cy="170" r="10" fill="black"/>
<circle cx="770" cy="210" r="10" fill="black"/>
<circle cx="770" cy="250" r="10" fill="black"/>
<circle cx="810" cy="10" r="10" fill="black"/>
<circle cx="810" cy="50" r="10" fill="black"/>
<circle cx="810" cy="90" r="10" fill="black"/>
<circle cx="810" cy="130" r="10" fill="black"/>
<circle cx="810" cy="170" r="10" fill="black"/>
<circle cx="810" cy="210" r="10" fill="black"/>
<circle cx="810" cy="250" r="10" fill="black"/>
<circle cx="850" cy="10" r="10" fill="black"/>
<circle cx="850" cy="50" r="10" fill="black"/>
<circle cx="850" cy="90" r="10" fill="black"/>
<circle cx="850" cy="130" r="10" fill="black"/>
<circle cx="850" cy="170" r="10" fill="black"/>
<circle cx="850" cy="210" r="10" fill="black"/>
<circle cx="850" cy="250" r="10" fill="black"/>
<circle cx="890" cy="10" r="10" fill="black"/>
<circle cx="890" cy="50" r="10" fill="black"/>
<circle cx="890" cy="90" r="10" fill="black"/>
<circle cx="890" cy="130" r="10" fill="black"/>
<circle cx="890" cy="170" r="10" fill="black"/>
<circle cx="890" cy="210" r="10" fill="black"/>
<circle cx="890" cy="250" r="10" fill="black"/>
<circle cx="930" cy="10" r="10" fill="black"/>
<circle cx="930" cy="50" r="10" fill="black"/>
<circle cx="930" cy="90" r="10" fill="black"/>
<circle cx="930" cy="130" r="10" fill="black"/>
<circle cx="930" cy="170" r="10" fill="black"/>
<circle cx="930" cy="210" r="10" fill="black"/>
<circle cx="930" cy="250" r="10" fill="black"/>
</svg>
